{
  "project_info": {
    "project_number": "225240987368",
    "firebase_url": "https://gcptutorial-289500.firebaseio.com",
    "project_id": "gcptutorial-289500",
    "storage_bucket": "gcptutorial-289500.appspot.com"
  },
  "client": [
    {
      "client_info": {
        "mobilesdk_app_id": "1:225240987368:android:ac673b038e4fc7f25ffb5d",
        "android_client_info": {
          "package_name": "nugroho.dimas.appx0f"
        }
      },
      "oauth_client": [
        {
          "client_id": "225240987368-7un1rc6n3uc8mlmvrqce5aoom2d3ik23.apps.googleusercontent.com",
          "client_type": 3
        }
      ],
      "api_key": [
        {
          "current_key": "AIzaSyCZwS8V4rNAqazSxy8yEWeJFZeq6yBqTkE"
        }
      ],
      "services": {
        "appinvite_service": {
          "other_platform_oauth_client": [
            {
              "client_id": "225240987368-7un1rc6n3uc8mlmvrqce5aoom2d3ik23.apps.googleusercontent.com",
              "client_type": 3
            }
          ]
        }
      }
    },
    {
      "client_info": {
        "mobilesdk_app_id": "1:225240987368:android:c0c3466e0c70d6305ffb5d",
        "android_client_info": {
          "package_name": "nugroho.dimas.firebase"
        }
      },
      "oauth_client": [
        {
          "client_id": "225240987368-7un1rc6n3uc8mlmvrqce5aoom2d3ik23.apps.googleusercontent.com",
          "client_type": 3
        }
      ],
      "api_key": [
        {
          "current_key": "AIzaSyCZwS8V4rNAqazSxy8yEWeJFZeq6yBqTkE"
        }
      ],
      "services": {
        "appinvite_service": {
          "other_platform_oauth_client": [
            {
              "client_id": "225240987368-7un1rc6n3uc8mlmvrqce5aoom2d3ik23.apps.googleusercontent.com",
              "client_type": 3
            }
          ]
        }
      }
    },
    {
      "client_info": {
        "mobilesdk_app_id": "1:225240987368:android:abd2c3fd5151e3a55ffb5d",
        "android_client_info": {
          "package_name": "nugroho.dimas.firebase_02"
        }
      },
      "oauth_client": [
        {
          "client_id": "225240987368-7un1rc6n3uc8mlmvrqce5aoom2d3ik23.apps.googleusercontent.com",
          "client_type": 3
        }
      ],
      "api_key": [
        {
          "current_key": "AIzaSyCZwS8V4rNAqazSxy8yEWeJFZeq6yBqTkE"
        }
      ],
      "services": {
        "appinvite_service": {
          "other_platform_oauth_client": [
            {
              "client_id": "225240987368-7un1rc6n3uc8mlmvrqce5aoom2d3ik23.apps.googleusercontent.com",
              "client_type": 3
            }
          ]
        }
      }
    },
    {
      "client_info": {
        "mobilesdk_app_id": "1:225240987368:android:c7b159a74a3474545ffb5d",
        "android_client_info": {
          "package_name": "nugroho.dimas.firebaseauth"
        }
      },
      "oauth_client": [
        {
          "client_id": "225240987368-7un1rc6n3uc8mlmvrqce5aoom2d3ik23.apps.googleusercontent.com",
          "client_type": 3
        }
      ],
      "api_key": [
        {
          "current_key": "AIzaSyCZwS8V4rNAqazSxy8yEWeJFZeq6yBqTkE"
        }
      ],
      "services": {
        "appinvite_service": {
          "other_platform_oauth_client": [
            {
              "client_id": "225240987368-7un1rc6n3uc8mlmvrqce5aoom2d3ik23.apps.googleusercontent.com",
              "client_type": 3
            }
          ]
        }
      }
    },
    {
      "client_info": {
        "mobilesdk_app_id": "1:225240987368:android:84bdfe70da12e3315ffb5d",
        "android_client_info": {
          "package_name": "nugroho.dimas.mvvmfirebase"
        }
      },
      "oauth_client": [
        {
          "client_id": "225240987368-7un1rc6n3uc8mlmvrqce5aoom2d3ik23.apps.googleusercontent.com",
          "client_type": 3
        }
      ],
      "api_key": [
        {
          "current_key": "AIzaSyCZwS8V4rNAqazSxy8yEWeJFZeq6yBqTkE"
        }
      ],
      "services": {
        "appinvite_service": {
          "other_platform_oauth_client": [
            {
              "client_id": "225240987368-7un1rc6n3uc8mlmvrqce5aoom2d3ik23.apps.googleusercontent.com",
              "client_type": 3
            }
          ]
        }
      }
    }
  ],
  "configuration_version": "1"
}